%YAML 1.1
%TAG !u! tag:unity3d.com,2011:
--- !u!21 &2100000
Material:
  serializedVersion: 6
  m_ObjectHideFlags: 0
  m_PrefabParentObject: {fileID: 0}
  m_PrefabInternal: {fileID: 0}
  m_Name: Water_02
  m_Shader: {fileID: 4800000, guid: 01ba5835f5c83f046b8595b8d65563fa, type: 3}
  m_ShaderKeywords: 
  m_LightmapFlags: 5
  m_CustomRenderQueue: -1
  stringTagMap: {}
  m_SavedProperties:
    serializedVersion: 2
    m_TexEnvs:
      data:
        first:
          name: _MainTex
        second:
          m_Texture: {fileID: 2800000, guid: 6a40aac6c3daf42f2b30d27a547b875a, type: 3}
          m_Scale: {x: 5, y: 5}
          m_Offset: {x: 0, y: 0}
      data:
        first:
          name: _BumpMap
        second:
          m_Texture: {fileID: 0}
          m_Scale: {x: 1, y: 1}
          m_Offset: {x: 0, y: 0}
      data:
        first:
          name: _Control
        second:
          m_Texture: {fileID: 0}
          m_Scale: {x: 1, y: 1}
          m_Offset: {x: 0, y: 0}
      data:
        first:
          name: _Splat0
        second:
          m_Texture: {fileID: 0}
          m_Scale: {x: 1, y: 1}
          m_Offset: {x: 0, y: 0}
      data:
        first:
          name: _Splat1
        second:
          m_Texture: {fileID: 0}
          m_Scale: {x: 1, y: 1}
          m_Offset: {x: 0, y: 0}
      data:
        first:
          name: _Splat2
        second:
          m_Texture: {fileID: 0}
          m_Scale: {x: 1, y: 1}
          m_Offset: {x: 0, y: 0}
      data:
        first:
          name: _Splat3
        second:
          m_Texture: {fileID: 0}
          m_Scale: {x: 1, y: 1}
          m_Offset: {x: 0, y: 0}
      data:
        first:
          name: _MaskTex
        second:
          m_Texture: {fileID: 2800000, guid: 0944bc578cd654ec4bcf5e5fbe4b27f2, type: 3}
          m_Scale: {x: 1, y: 1}
          m_Offset: {x: 0, y: 0}
      data:
        first:
          name: _Detail
        second:
          m_Texture: {fileID: 0}
          m_Scale: {x: 6, y: 6}
          m_Offset: {x: 0, y: 0}
      data:
        first:
          name: _ParallaxMap
        second:
          m_Texture: {fileID: 0}
          m_Scale: {x: 1, y: 1}
          m_Offset: {x: 0, y: 0}
      data:
        first:
          name: _Illum
        second:
          m_Texture: {fileID: 0}
          m_Scale: {x: 1, y: 1}
          m_Offset: {x: 0, y: 0}
      data:
        first:
          name: _Texture
        second:
          m_Texture: {fileID: 0}
          m_Scale: {x: 1, y: 1}
          m_Offset: {x: 0, y: 0}
      data:
        first:
          name: _EnvMap
        second:
          m_Texture: {fileID: 0}
          m_Scale: {x: 1, y: 1}
          m_Offset: {x: 0, y: 0}
      data:
        first:
          name: _ExitColorMap
        second:
          m_Texture: {fileID: 0}
          m_Scale: {x: 1, y: 1}
          m_Offset: {x: 0, y: 0}
      data:
        first:
          name: _WaveTex
        second:
          m_Texture: {fileID: 2800000, guid: 6a40aac6c3daf42f2b30d27a547b875a, type: 3}
          m_Scale: {x: 1, y: 1}
          m_Offset: {x: 0, y: 0}
      data:
        first:
          name: _CubeTex
        second:
          m_Texture: {fileID: 8900000, guid: 45928464ea5fd4df7898d82bf3e0e5f6, type: 2}
          m_Scale: {x: 1, y: 1}
          m_Offset: {x: 0, y: 0}
      data:
        first:
          name: _Cube
        second:
          m_Texture: {fileID: 0}
          m_Scale: {x: 1, y: 1}
          m_Offset: {x: 0, y: 0}
      data:
        first:
          name: _LightMap
        second:
          m_Texture: {fileID: 0}
          m_Scale: {x: 1, y: 1}
          m_Offset: {x: 0, y: 0}
      data:
        first:
          name: _Reflect
        second:
          m_Texture: {fileID: 0}
          m_Scale: {x: 1, y: 1}
          m_Offset: {x: 0, y: 0}
    m_Floats:
      data:
        first:
          name: _Cutoff
        second: 0.5
      data:
        first:
          name: _Shininess
        second: 0.15145564
      data:
        first:
          name: _MainTexMultiply
        second: 2.3214285
      data:
        first:
          name: _MainTexMoveSpeedU
        second: 0.000000004257475
      data:
        first:
          name: _MainTexMoveSpeedV
        second: 0.2142859
      data:
        first:
          name: _Outline
        second: 0.005
      data:
        first:
          name: _Parallax
        second: 0.02
      data:
        first:
          name: _InvFade
        second: 2.3752239
      data:
        first:
          name: _EmissionLM
        second: 0
      data:
        first:
          name: _RMS
        second: 0.707107
      data:
        first:
          name: _Inside
        second: 0
      data:
        first:
          name: _Rim
        second: 1.2
      data:
        first:
          name: _Speed
        second: 0.5
      data:
        first:
          name: _Tile
        second: 5
      data:
        first:
          name: _Strength
        second: 1.5
      data:
        first:
          name: _ShadeRange
        second: 0.02
      data:
        first:
          name: _ShadingStrength
        second: 1
      data:
        first:
          name: _Layer1Thickness
        second: 0.67164177
      data:
        first:
          name: _Layer2Thickness
        second: 0.1
      data:
        first:
          name: _WaveSpeed
        second: 0.077611946
      data:
        first:
          name: _Refraction
        second: 1
    m_Colors:
      data:
        first:
          name: _Color
        second: {r: 0.2509804, g: 0.5372549, b: 0.5647059, a: 0.39215687}
      data:
        first:
          name: _SpecColor
        second: {r: 1, g: 1, b: 1, a: 0}
      data:
        first:
          name: _MainTexColor
        second: {r: 0, g: 0.47058824, b: 1, a: 0.49019608}
      data:
        first:
          name: _Emission
        second: {r: 0.31617647, g: 0.31617647, b: 0.31617647, a: 0.3254902}
      data:
        first:
          name: _OutlineColor
        second: {r: 0, g: 0, b: 0, a: 1}
      data:
        first:
          name: _TintColor
        second: {r: 0.8053633, g: 0.96365887, b: 0.97794116, a: 0.78431374}
      data:
        first:
          name: _EmisColor
        second: {r: 0.5661765, g: 0.5661765, b: 0.5661765, a: 0}
      data:
        first:
          name: _SSSC
        second: {r: 1, g: 1, b: 1, a: 1}
      data:
        first:
          name: _ReflectColor
        second: {r: 1, g: 1, b: 1, a: 0.44313726}
