%YAML 1.1
%TAG !u! tag:unity3d.com,2011:
--- !u!74 &7400000
AnimationClip:
  m_ObjectHideFlags: 0
  m_PrefabParentObject: {fileID: 0}
  m_PrefabInternal: {fileID: 0}
  m_Name: change_stage
  serializedVersion: 6
  m_Legacy: 0
  m_Compressed: 0
  m_UseHighQualityCurve: 1
  m_RotationCurves: []
  m_CompressedRotationCurves: []
  m_EulerCurves: []
  m_PositionCurves: []
  m_ScaleCurves: []
  m_FloatCurves:
  - curve:
      serializedVersion: 2
      m_Curve:
      - serializedVersion: 2
        time: 0
        value: -754
        inSlope: 0
        outSlope: 0
        tangentMode: 34
      - serializedVersion: 2
        time: 0.9
        value: -754
        inSlope: 1459.9996
        outSlope: 1459.9996
        tangentMode: 34
      - serializedVersion: 2
        time: 1.1
        value: -170
        inSlope: 1409.9996
        outSlope: 1409.9996
        tangentMode: 34
      - serializedVersion: 2
        time: 1.2
        value: -180
        inSlope: 0.000061035156
        outSlope: 0.000061035156
        tangentMode: 34
      - serializedVersion: 2
        time: 1.3
        value: -170
        inSlope: 50.00005
        outSlope: 50.00005
        tangentMode: 34
      - serializedVersion: 2
        time: 1.6
        value: -170
        inSlope: 0
        outSlope: 0
        tangentMode: 34
      m_PreInfinity: 2
      m_PostInfinity: 2
      m_RotationOrder: 4
    attribute: m_AnchoredPosition.y
    path: bottom
    classID: 224
    script: {fileID: 0}
  - curve:
      serializedVersion: 2
      m_Curve:
      - serializedVersion: 2
        time: 0
        value: 586
        inSlope: 0
        outSlope: 0
        tangentMode: 34
      - serializedVersion: 2
        time: 0.9
        value: 586
        inSlope: -989.99976
        outSlope: -989.99976
        tangentMode: 34
      - serializedVersion: 2
        time: 1.1
        value: 190
        inSlope: -939.99976
        outSlope: -939.99976
        tangentMode: 34
      - serializedVersion: 2
        time: 1.2
        value: 200
        inSlope: -0.000061035156
        outSlope: -0.000061035156
        tangentMode: 34
      - serializedVersion: 2
        time: 1.3
        value: 190
        inSlope: -50.00005
        outSlope: -50.00005
        tangentMode: 34
      - serializedVersion: 2
        time: 1.6
        value: 190
        inSlope: 0
        outSlope: 0
        tangentMode: 34
      m_PreInfinity: 2
      m_PostInfinity: 2
      m_RotationOrder: 4
    attribute: m_AnchoredPosition.y
    path: top
    classID: 224
    script: {fileID: 0}
  m_PPtrCurves: []
  m_SampleRate: 10
  m_WrapMode: 0
  m_Bounds:
    m_Center: {x: 0, y: 0, z: 0}
    m_Extent: {x: 0, y: 0, z: 0}
  m_ClipBindingConstant:
    genericBindings:
    - path: 2304733860
      attribute: 538195251
      script: {fileID: 0}
      classID: 224
      customType: 0
      isPPtrCurve: 0
    - path: 517545930
      attribute: 538195251
      script: {fileID: 0}
      classID: 224
      customType: 0
      isPPtrCurve: 0
    pptrCurveMapping: []
  m_AnimationClipSettings:
    serializedVersion: 2
    m_AdditiveReferencePoseClip: {fileID: 0}
    m_AdditiveReferencePoseTime: 0
    m_StartTime: 0
    m_StopTime: 1.6
    m_OrientationOffsetY: 0
    m_Level: 0
    m_CycleOffset: 0
    m_HasAdditiveReferencePose: 0
    m_LoopTime: 0
    m_LoopBlend: 0
    m_LoopBlendOrientation: 0
    m_LoopBlendPositionY: 0
    m_LoopBlendPositionXZ: 0
    m_KeepOriginalOrientation: 0
    m_KeepOriginalPositionY: 1
    m_KeepOriginalPositionXZ: 0
    m_HeightFromFeet: 0
    m_Mirror: 0
  m_EditorCurves:
  - curve:
      serializedVersion: 2
      m_Curve:
      - serializedVersion: 2
        time: 0
        value: -754
        inSlope: 0
        outSlope: 0
        tangentMode: 34
      - serializedVersion: 2
        time: 0.9
        value: -754
        inSlope: 1459.9996
        outSlope: 1459.9996
        tangentMode: 34
      - serializedVersion: 2
        time: 1.1
        value: -170
        inSlope: 1409.9996
        outSlope: 1409.9996
        tangentMode: 34
      - serializedVersion: 2
        time: 1.2
        value: -180
        inSlope: 0.000061035156
        outSlope: 0.000061035156
        tangentMode: 34
      - serializedVersion: 2
        time: 1.3
        value: -170
        inSlope: 50.00005
        outSlope: 50.00005
        tangentMode: 34
      - serializedVersion: 2
        time: 1.6
        value: -170
        inSlope: 0
        outSlope: 0
        tangentMode: 34
      m_PreInfinity: 2
      m_PostInfinity: 2
      m_RotationOrder: 4
    attribute: m_AnchoredPosition.y
    path: bottom
    classID: 224
    script: {fileID: 0}
  - curve:
      serializedVersion: 2
      m_Curve:
      - serializedVersion: 2
        time: 0
        value: 586
        inSlope: 0
        outSlope: 0
        tangentMode: 34
      - serializedVersion: 2
        time: 0.9
        value: 586
        inSlope: -989.99976
        outSlope: -989.99976
        tangentMode: 34
      - serializedVersion: 2
        time: 1.1
        value: 190
        inSlope: -939.99976
        outSlope: -939.99976
        tangentMode: 34
      - serializedVersion: 2
        time: 1.2
        value: 200
        inSlope: -0.000061035156
        outSlope: -0.000061035156
        tangentMode: 34
      - serializedVersion: 2
        time: 1.3
        value: 190
        inSlope: -50.00005
        outSlope: -50.00005
        tangentMode: 34
      - serializedVersion: 2
        time: 1.6
        value: 190
        inSlope: 0
        outSlope: 0
        tangentMode: 34
      m_PreInfinity: 2
      m_PostInfinity: 2
      m_RotationOrder: 4
    attribute: m_AnchoredPosition.y
    path: top
    classID: 224
    script: {fileID: 0}
  m_EulerEditorCurves: []
  m_HasGenericRootTransform: 0
  m_HasMotionFloatCurves: 0
  m_GenerateMotionCurves: 0
  m_IsEmpty: 0
  m_Events:
  - time: 1.3
    functionName: BattleScene
    data: 
    objectReferenceParameter: {fileID: 0}
    floatParameter: 0
    intParameter: 0
    messageOptions: 0
