%YAML 1.1
%TAG !u! tag:unity3d.com,2011:
--- !u!221 &22100000
AnimatorOverrideController:
  m_ObjectHideFlags: 0
  m_PrefabParentObject: {fileID: 0}
  m_PrefabInternal: {fileID: 0}
  m_Name: DoraAC
  m_Controller: {fileID: 9100000, guid: e403c9c392671834da9728417e01cfcd, type: 2}
  m_Clips:
  - m_OriginalClip: {fileID: 7400004, guid: b067153f8c0e9244aa620055076defc4, type: 3}
    m_OverrideClip: {fileID: 7400002, guid: 6cd25623c66ee4f42aec3c01ddb899d3, type: 3}
  - m_OriginalClip: {fileID: 7400006, guid: b067153f8c0e9244aa620055076defc4, type: 3}
    m_OverrideClip: {fileID: 7400002, guid: 1ca7f117032292e4c9dda0ddb5073098, type: 3}
  - m_OriginalClip: {fileID: 7400000, guid: b067153f8c0e9244aa620055076defc4, type: 3}
    m_OverrideClip: {fileID: 7400002, guid: 99ba1f7a39caaa24996eaa0cb47a8d2f, type: 3}
  - m_OriginalClip: {fileID: 7400002, guid: b067153f8c0e9244aa620055076defc4, type: 3}
    m_OverrideClip: {fileID: 7400002, guid: bc8a5cebf53666c43962c9cb4d15a1bc, type: 3}
  - m_OriginalClip: {fileID: 7400008, guid: b067153f8c0e9244aa620055076defc4, type: 3}
    m_OverrideClip: {fileID: 7400002, guid: 439a6648d381eab4fa43f73a084ea6c8, type: 3}
